<?xml version="1.0" encoding="utf-8"?>
<!-- Generator: Adobe Illustrator 19.0.1, SVG Export Plug-In . SVG Version: 6.00 Build 0)  -->
<svg version="1.1" id="Calque_1" xmlns="http://www.w3.org/2000/svg" xmlns:xlink="http://www.w3.org/1999/xlink" x="0px" y="0px"
	 viewBox="0 0 60.5 60.4" style="enable-background:new 0 0 60.5 60.4;" xml:space="preserve">
<style type="text/css">
	.st0{fill:none;stroke:#000000;stroke-width:2;stroke-linecap:round;stroke-linejoin:round;stroke-miterlimit:10;}
	.st1{fill:none;stroke:#4F4F5A;stroke-width:2;stroke-linecap:round;stroke-linejoin:round;stroke-miterlimit:10;}
</style>
<g>
	<g>
		<path class="st0" d="M286.1,284c8.3,2.9,19.5,6.7,27.8,9.7c3.9,1.4,7.9,2.7,11.8,4.2c1.6,0.6,1.6,0.5,1,2.3
			c-0.8,2.4-1.7,4.7-2.6,7.1c-0.1,0.3-0.6,2-1.6,2c-6.3,0-12.7,0.3-19,0.3c-1.2,0-2.3-0.6-3-1.5c-0.8-1.1-1.6-2.2-2.4-3.2
			c-1.4-1.7-3.2-2.2-5.3-2.2c-3.6,0-16.8,0-18,0.1c-1.9,0.1-3.6,1.7-3.6,4.9c0,9.9,0,18.7,0,29.6c0,3.3,1.7,5,4.1,5.2
			c0.1,0,0.2,0,0.3,0c16.6,0,33.1,0,49.7,0c2,0,3.8-1.2,4.3-2.8c0.1-0.2,0.1-0.5,0.1-0.8c0-8.5,0-17.1,0-25.6c0-2.3-2-3.8-3.9-3.9
			c-0.7,0-1.4-0.2-2.4-0.2"/>
		<path class="st0" d="M291.5,293.8c7.4,2.6,17.5,6.2,24.9,8.9"/>
		<path class="st0" d="M289.5,298.3c7.4,2.6,17.5,6.2,24.9,8.9"/>
		<path class="st0" d="M286.1,284.2c-1.9,5-5.2,13.1-6.9,17.8"/>
	</g>
	<path class="st0" d="M278.3,291.9"/>
</g>
<g>
	<g>
		<path class="st1" d="M16.1,1c8.3,2.9,19.5,6.7,27.8,9.7c3.9,1.4,7.9,2.7,11.8,4.2c1.6,0.6,1.6,0.5,1,2.3c-0.8,2.4-1.7,4.7-2.6,7.1
			c-0.1,0.3-0.6,2-1.6,2c-6.3,0-12.7,0.3-19,0.3c-1.2,0-2.3-0.6-3-1.5c-0.8-1.1-1.6-2.2-2.4-3.2c-1.4-1.7-3.2-2.2-5.3-2.2
			c-3.6,0-16.8,0-18,0.1C2.7,19.8,1,21.5,1,24.6c0,9.9,0,18.7,0,29.6c0,3.3,1.7,5,4.1,5.2c0.1,0,0.2,0,0.3,0c16.6,0,33.1,0,49.7,0
			c2,0,3.8-1.2,4.3-2.8c0.1-0.2,0.1-0.5,0.1-0.8c0-8.5,0-17.1,0-25.6c0-2.3-2-3.8-3.9-3.9c-0.7,0-1.4-0.2-2.4-0.2"/>
		<path class="st1" d="M21.5,10.8C29,13.4,39,17,46.5,19.6"/>
		<path class="st1" d="M19.5,15.3c7.4,2.6,17.5,6.2,24.9,8.9"/>
		<path class="st1" d="M16.1,1.2c-1.9,5-5.2,13.1-6.9,17.8"/>
	</g>
	<path class="st1" d="M8.3,8.9"/>
</g>
</svg>
