<?xml version="1.0" encoding="utf-8"?>
<!-- Generator: Adobe Illustrator 19.0.1, SVG Export Plug-In . SVG Version: 6.00 Build 0)  -->
<svg version="1.1" id="Calque_1" xmlns="http://www.w3.org/2000/svg" xmlns:xlink="http://www.w3.org/1999/xlink" x="0px" y="0px"
	 viewBox="0 0 45.5 63.5" style="enable-background:new 0 0 45.5 63.5;" xml:space="preserve">
<style type="text/css">
	.st0{fill:none;stroke:#000000;stroke-width:2;stroke-linecap:round;stroke-linejoin:round;stroke-miterlimit:10;}
	.st1{fill:none;stroke:#4F4F5A;stroke-width:2;stroke-linecap:round;stroke-linejoin:round;stroke-miterlimit:10;}
	.st2{fill:none;stroke:#4F4F5A;stroke-width:2;stroke-miterlimit:10;}
</style>
<g>
	<g>
		<path class="st0" d="M278,287.3c8.3,2.9,19.5,6.7,27.8,9.7c3.9,1.4,7.9,2.7,11.8,4.2c1.6,0.6,1.6,0.5,1,2.3
			c-0.8,2.4-1.7,4.7-2.6,7.1c-0.1,0.3-0.6,2-1.6,2c-6.3,0-12.7,0.3-19,0.3c-1.2,0-2.3-0.6-3-1.5c-0.8-1.1-1.6-2.2-2.4-3.2
			c-1.4-1.7-3.2-2.2-5.3-2.2c-3.6,0-16.8,0-18,0.1c-1.9,0.1-3.6,1.7-3.6,4.9c0,9.9,0,18.7,0,29.6c0,3.3,1.7,5,4.1,5.2
			c0.1,0,0.2,0,0.3,0c16.6,0,33.1,0,49.7,0c2,0,3.8-1.2,4.3-2.8c0.1-0.2,0.1-0.5,0.1-0.8c0-8.5,0-17.1,0-25.6c0-2.3-2-3.8-3.9-3.9
			c-0.7,0-1.4-0.2-2.4-0.2"/>
		<path class="st0" d="M283.5,297.1c7.4,2.6,17.5,6.2,24.9,8.9"/>
		<path class="st0" d="M281.5,301.6c7.4,2.6,17.5,6.2,24.9,8.9"/>
		<path class="st0" d="M278,287.6c-1.9,5-5.2,13.1-6.9,17.8"/>
	</g>
	<path class="st0" d="M270.3,295.2"/>
</g>
<circle class="st1" cx="22.6" cy="47.3" r="3.2"/>
<path class="st1" d="M19.4,68.1"/>
<g>
	<path class="st2" d="M23.6,1c0.1,0,0.2,0,0.4,0"/>
	<path class="st2" d="M23.4,1C2.7,1.3,0.4,15.6,1.1,25.1c0.4,4.4,1.8,8.6,4,12.4l13.3,22.2c1.1,1.9,3,2.8,5,2.8"/>
	<path class="st2" d="M23.4,1c0.1,0,0.2,0,0.3,0"/>
	<path class="st2" d="M23.3,1c0,0,0.1,0,0.1,0"/>
	<path class="st2" d="M23.4,1c0.1,0,0.2,0,0.3,0"/>
	<line class="st2" x1="23.4" y1="1" x2="23.4" y2="1"/>
</g>
<g>
	<path class="st2" d="M21.9,1c-0.1,0-0.2,0-0.4,0"/>
	<path class="st2" d="M22.1,1c20.7,0.3,23,14.6,22.3,24.1c-0.4,4.4-1.8,8.6-4,12.4L27.1,59.7c-1.1,1.9-3,2.8-5,2.8"/>
	<path class="st2" d="M22.1,1c-0.1,0-0.2,0-0.3,0"/>
	<path class="st2" d="M22.2,1c0,0-0.1,0-0.1,0"/>
	<path class="st2" d="M22.1,1C22,1,22,1,21.9,1"/>
	<line class="st2" x1="22.1" y1="1" x2="22.1" y2="1"/>
</g>
<g>
	<path class="st2" d="M28,29.3c0,0,1-12.2,11.4-9.6"/>
	<path class="st2" d="M28.1,28.4c0,0,13.3,0.6,10.9-9.4"/>
</g>
<g>
	<path class="st2" d="M17.4,29.3c0,0-1-12.2-11.4-9.6"/>
	<path class="st2" d="M17.3,28.4c0,0-13.3,0.6-10.9-9.4"/>
</g>
</svg>
