<?xml version="1.0" encoding="utf-8"?>
<!-- Generator: Adobe Illustrator 16.0.0, SVG Export Plug-In . SVG Version: 6.00 Build 0)  -->
<!DOCTYPE svg PUBLIC "-//W3C//DTD SVG 1.1//EN" "http://www.w3.org/Graphics/SVG/1.1/DTD/svg11.dtd">
<svg version="1.1" id="Calque_1" xmlns="http://www.w3.org/2000/svg" xmlns:xlink="http://www.w3.org/1999/xlink" x="0px" y="0px"
	 width="103.452px" height="77.683px" viewBox="0 0 103.452 77.683" enable-background="new 0 0 103.452 77.683"
	 xml:space="preserve">
<path fill-rule="evenodd" clip-rule="evenodd" fill="none" stroke="#000000" stroke-width="2" stroke-miterlimit="10" d="
	M97.85,10.724c-4.993,7.205-11.039,13.493-17.402,19.484C70.588,39.492,60.2,48.122,48.913,55.637
	c-1.974,1.319-2.67,1.263-4.435-0.384c-1.562-1.461-3.046-3.005-4.589-4.489c-1.921-1.852-2.699-1.819-4.311,0.423
	c-1.375,1.916-2.618,3.93-3.857,5.94c-2.741,4.443-6.53,7.524-11.532,9.107c-1.497,0.474-2.959,1.074-4.436,1.609
	c-2.125,0.773-3.319,2.194-3.351,4.543c-0.021,1.707-0.418,3.31-2.258,3.976c-1.918,0.689-3.736,0.23-5.232-1.023
	c-2.182-1.826-3.603-4.193-3.904-7.063c-0.066-0.628,0.32-1.546,0.811-1.953c23.518-19.566,47.064-39.103,70.63-58.61
	c3.062-2.536,6.538-4.403,10.369-5.517c6.442-1.871,12.746-1.673,19.224,1.511C100.6,6.139,99.371,8.533,97.85,10.724z"/>
<circle fill-rule="evenodd" clip-rule="evenodd" fill="none" stroke="#000000" stroke-width="2" stroke-miterlimit="10" cx="14.334" cy="62.798" r="2"/>
<circle fill-rule="evenodd" clip-rule="evenodd" fill="none" stroke="#000000" stroke-width="2" stroke-miterlimit="10" cx="22.031" cy="56.414" r="2"/>
<circle fill-rule="evenodd" clip-rule="evenodd" fill="none" stroke="#000000" stroke-width="2" stroke-miterlimit="10" cx="29.727" cy="50.029" r="2"/>
</svg>
