<?xml version="1.0" encoding="utf-8"?>
<!-- Generator: Adobe Illustrator 19.0.1, SVG Export Plug-In . SVG Version: 6.00 Build 0)  -->
<svg version="1.1" id="Calque_1" xmlns="http://www.w3.org/2000/svg" xmlns:xlink="http://www.w3.org/1999/xlink" x="0px" y="0px"
	 viewBox="0 0 60 57" style="enable-background:new 0 0 60 57;" xml:space="preserve">
<style type="text/css">
	.st0{fill:none;stroke:#000000;stroke-width:2;stroke-linecap:round;stroke-linejoin:round;stroke-miterlimit:10;}
	.st1{fill:none;stroke:#4F4F5A;stroke-width:2;stroke-linecap:round;stroke-linejoin:round;stroke-miterlimit:10;}
	.st2{fill:none;stroke:#4F4F5A;stroke-width:2;stroke-miterlimit:10;}
	.st3{fill:#4F4F5A;}
</style>
<g>
	<g>
		<path class="st0" d="M285,282.6c8.3,2.9,19.5,6.7,27.8,9.7c3.9,1.4,7.9,2.7,11.8,4.2c1.6,0.6,1.6,0.5,1,2.3
			c-0.8,2.4-1.7,4.7-2.6,7.1c-0.1,0.3-0.6,2-1.6,2c-6.3,0-12.7,0.3-19,0.3c-1.2,0-2.3-0.6-3-1.5c-0.8-1.1-1.6-2.2-2.4-3.2
			c-1.4-1.7-3.2-2.2-5.3-2.2c-3.6,0-16.8,0-18,0.1c-1.9,0.1-3.6,1.7-3.6,4.9c0,9.9,0,18.7,0,29.6c0,3.3,1.7,5,4.1,5.2
			c0.1,0,0.2,0,0.3,0c16.6,0,33.1,0,49.7,0c2,0,3.8-1.2,4.3-2.8c0.1-0.2,0.1-0.5,0.1-0.8c0-8.5,0-17.1,0-25.6c0-2.3-2-3.8-3.9-3.9
			c-0.7,0-1.4-0.2-2.4-0.2"/>
		<path class="st0" d="M290.5,292.4c7.4,2.6,17.5,6.2,24.9,8.9"/>
		<path class="st0" d="M288.5,297c7.4,2.6,17.5,6.2,24.9,8.9"/>
		<path class="st0" d="M285,282.9c-1.9,5-5.2,13.1-6.9,17.8"/>
	</g>
	<path class="st0" d="M277.3,290.6"/>
</g>
<path class="st1" d="M32.8,9.8l4.5,9.1c0.5,0.9,1.3,1.6,2.3,1.7l10,1.5c2.5,0.4,3.6,3.5,1.7,5.3l-7.3,7.1c-0.7,0.7-1.1,1.7-0.9,2.8
	l1.7,10c0.4,2.5-2.2,4.5-4.5,3.3l-9-4.7c-0.9-0.5-2-0.5-2.9,0l-9,4.7c-2.3,1.2-4.9-0.7-4.5-3.3l1.7-10c0.2-1-0.2-2-0.9-2.8l-7.3-7.1
	c-1.8-1.8-0.8-4.9,1.7-5.3l10-1.5c1-0.1,1.9-0.8,2.3-1.7l4.5-9.1C28.4,7.5,31.7,7.5,32.8,9.8z"/>
<circle class="st2" cx="30" cy="4" r="3"/>
<circle class="st2" cx="56" cy="23" r="3"/>
<circle class="st2" cx="47" cy="53" r="3"/>
<circle class="st2" cx="4" cy="23" r="3"/>
<circle class="st2" cx="13" cy="53" r="3"/>
<circle class="st3" cx="30.1" cy="31" r="5.1"/>
</svg>
