<?xml version="1.0" encoding="utf-8"?>
<!-- Generator: Adobe Illustrator 19.0.1, SVG Export Plug-In . SVG Version: 6.00 Build 0)  -->
<svg version="1.1" id="Calque_1" xmlns="http://www.w3.org/2000/svg" xmlns:xlink="http://www.w3.org/1999/xlink" x="0px" y="0px"
	 viewBox="0 0 62 34" style="enable-background:new 0 0 62 34;" xml:space="preserve">
<style type="text/css">
	.st0{clip-path:url(#SVGID_2_);fill:#F1575C;}
	.st1{clip-path:url(#SVGID_2_);fill:#FCEE66;}
</style>
<g>
	<defs>
		<path id="SVGID_1_" d="M56.1,33.4H5.9c-2.2,0-3.9-1.8-3.9-4.1V4.7c0-2.3,1.7-4.1,3.9-4.1h50.2c2.2,0,3.9,1.8,3.9,4.1v24.6
			C60,31.6,58.3,33.4,56.1,33.4z"/>
	</defs>
	<clipPath id="SVGID_2_">
		<use xlink:href="#SVGID_1_"  style="overflow:visible;"/>
	</clipPath>
	<rect x="1" class="st0" width="61" height="9"/>
	<rect x="1" y="9" class="st1" width="60" height="16"/>
	<rect y="25" class="st0" width="62" height="9"/>
</g>
</svg>
