<?xml version="1.0" encoding="utf-8"?>
<!-- Generator: Adobe Illustrator 19.0.1, SVG Export Plug-In . SVG Version: 6.00 Build 0)  -->
<svg version="1.1" id="Calque_1" xmlns="http://www.w3.org/2000/svg" xmlns:xlink="http://www.w3.org/1999/xlink" x="0px" y="0px"
	 viewBox="2.5 0.6 58 32.9" style="enable-background:new 2.5 0.6 58 32.9;" xml:space="preserve">
<style type="text/css">
	.st0{clip-path:url(#SVGID_2_);fill:none;}
	.st1{clip-path:url(#SVGID_2_);fill:#F1575C;}
	.st2{clip-path:url(#SVGID_2_);fill:#FCEE66;}
</style>
<g>
	<defs>
		<path id="SVGID_1_" d="M56.6,33.4H6.4c-2.2,0-3.9-1.8-3.9-4.1V4.7c0-2.3,1.7-4.1,3.9-4.1h50.2c2.2,0,3.9,1.8,3.9,4.1v24.6
			C60.5,31.6,58.8,33.4,56.6,33.4z"/>
	</defs>
	<clipPath id="SVGID_2_">
		<use xlink:href="#SVGID_1_"  style="overflow:visible;"/>
	</clipPath>
	<path class="st0" d="M53.6,40.4H3.4c-2.2,0-3.9-1.8-3.9-4.1V11.7c0-2.3,1.7-4.1,3.9-4.1h50.2c2.2,0,3.9,1.8,3.9,4.1v24.6
		C57.5,38.6,55.8,40.4,53.6,40.4z"/>
	<rect x="1" y="-3" class="st1" width="61" height="12"/>
	<rect x="0" y="9" class="st2" width="65" height="16"/>
	<rect x="0" y="25" class="st1" width="62" height="11"/>
</g>
</svg>
