<?xml version="1.0" encoding="utf-8"?>
<!-- Generator: Adobe Illustrator 19.0.1, SVG Export Plug-In . SVG Version: 6.00 Build 0)  -->
<svg version="1.1" id="Calque_1" xmlns="http://www.w3.org/2000/svg" xmlns:xlink="http://www.w3.org/1999/xlink" x="0px" y="0px"
	 viewBox="-1 1.1 58 32.9" style="enable-background:new -1 1.1 58 32.9;" xml:space="preserve">
<style type="text/css">
	.st0{clip-path:url(#SVGID_2_);fill:#2A2A45;}
	.st1{clip-path:url(#SVGID_4_);fill:#F1575C;}
	.st2{clip-path:url(#SVGID_6_);fill:#FCEE66;}
</style>
<g>
	<g>
		<g>
			<defs>
				<path id="SVGID_1_" d="M52.1,35.1H1.9c-2.2,0-3.9-1.9-3.9-4.2V6.3C-2,4-0.3,2.2,1.9,2.2h50.2C54.3,2.2,56,4,56,6.3v24.6
					C56,33.2,54.3,35.1,52.1,35.1z"/>
			</defs>
			<clipPath id="SVGID_2_">
				<use xlink:href="#SVGID_1_"  style="overflow:visible;"/>
			</clipPath>
			<path class="st0" d="M1.4-0.1c-2.2,0-4.9,2.4-4.9,4.9v26.7c0,2.5,2.7,4.4,4.9,4.4h15.1v-36C16.5-0.1,1.4-0.1,1.4-0.1z"/>
		</g>
	</g>
	<g>
		<g>
			<defs>
				<path id="SVGID_3_" d="M52.1,35.1H1.9c-2.2,0-3.9-1.9-3.9-4.2V6.3C-2,4-0.3,2.2,1.9,2.2h50.2C54.3,2.2,56,4,56,6.3v24.6
					C56,33.2,54.3,35.1,52.1,35.1z"/>
			</defs>
			<clipPath id="SVGID_4_">
				<use xlink:href="#SVGID_3_"  style="overflow:visible;"/>
			</clipPath>
			<path class="st1" d="M53.3-0.1H36.5v37h16.8c1.6,0,3.2-1.3,3.2-2.9V3C56.5,1.4,55-0.1,53.3-0.1z"/>
		</g>
	</g>
	<g>
		<g>
			<defs>
				<path id="SVGID_5_" d="M52.1,35.1H1.9c-2.2,0-3.9-1.9-3.9-4.2V6.3C-2,4-0.3,2.2,1.9,2.2h50.2C54.3,2.2,56,4,56,6.3v24.6
					C56,33.2,54.3,35.1,52.1,35.1z"/>
			</defs>
			<clipPath id="SVGID_6_">
				<use xlink:href="#SVGID_5_"  style="overflow:visible;"/>
			</clipPath>
			<rect x="16.5" y="-0.1" class="st2" width="20" height="37"/>
		</g>
	</g>
</g>
</svg>
